guardianApi = {
  "response": [
    {"status":"ok",
    "userTier":"developer",
    "total":26450,
    "startIndex":1,
    "pageSize":10,
    "currentPage":1,
    "pages":2645,
    "orderBy":"relevance",
    "results":[ {

      "id":"politics/2016/aug/09/brexit-weekly-briefing-banks-stimulus-comes-too-soon-for-some",
      "type":"article",
      "sectionId":"politics",
      "sectionName":"Politics",
      "webPublicationDate":"2016-08-09T08:56:09Z",
      "webTitle":"Brexit weekly briefing: economy takes centre stage as politics stalls",
      "webUrl":"https://www.theguardian.com/politics/2016/aug/09/brexit-weekly-briefing-banks-stimulus-comes-too-soon-for-some",
      "apiUrl":"https://content.guardianapis.com/politics/2016/aug/09/brexit-weekly-briefing-banks-stimulus-comes-too-soon-for-some",
      "fields":{
        "thumbnail":"https://media.guim.co.uk/8a3cc081f728b13d2fad7ba8806d43d02bf3f7d1/0_118_3500_2100/500.jpg"
        }
        ,
      "isHosted":false
    }
    ,
    {
      "id":"australia-news/2016/apr/08/morrison-labels-mandatory-steel-use-old-economy-labor-politics",
      "type":"article",
      "sectionId":"australia-news",
      "sectionName":"Australia news",
      "webPublicationDate":"2016-04-08T03:35:21Z",
      "webTitle":"Morrison labels mandatory steel use 'old-economy Labor politics'",
      "webUrl":"https://www.theguardian.com/australia-news/2016/apr/08/morrison-labels-mandatory-steel-use-old-economy-labor-politics",
      "apiUrl":"https://content.guardianapis.com/australia-news/2016/apr/08/morrison-labels-mandatory-steel-use-old-economy-labor-politics",
      "fields":{
        "thumbnail":"https://media.guim.co.uk/ce73858508bb31f17bd6495edf167a541ff570b2/0_0_3615_2170/500.jpg"
        }
        ,
      "isHosted":false
    }
    ,
    {
      "id":"politics/2016/jun/23/digested-eu-referendum-campaign",
      "type":"article",
      "sectionId":"politics",
      "sectionName":"Politics",
      "webPublicationDate":"2016-06-23T06:00:03Z",
      "webTitle":"The digested referendum campaign: Immigration! Economy! Immigration!",
      "webUrl":"https://www.theguardian.com/politics/2016/jun/23/digested-eu-referendum-campaign",
      "apiUrl":"https://content.guardianapis.com/politics/2016/jun/23/digested-eu-referendum-campaign",
      "fields":{
        "thumbnail":"https://media.guim.co.uk/086b3554a2b3e1267e38b81ba58f3b90c6a34231/0_218_3463_2078/500.jpg"
        }
        ,
        "isHosted":false
      }
      ,
      {
        "id":"world/2016/apr/07/frances-emmanuel-macron-launches-political-movement",
        "type":"article",
        "sectionId":"world",
        "sectionName":"World news",
        "webPublicationDate":"2016-04-07T12:21:42Z",
        "webTitle":"France's economy minister Emmanuel Macron launches political movement",
        "webUrl":"https://www.theguardian.com/world/2016/apr/07/frances-emmanuel-macron-launches-political-movement",
        "apiUrl":"https://content.guardianapis.com/world/2016/apr/07/frances-emmanuel-macron-launches-political-movement",
        "fields":{
          "thumbnail":"http://media.guim.co.uk/52a31e2b62f2eb9b97691e18396dcc369441c1cf/0_158_4735_2840/500.jpg"
          }
          ,
          "isHosted":false
      }
      ,
      {
          "id":"us-news/live/2016/jun/21/hillary-clinton-donald-trump-economic-issues-general-election",
          "type":"liveblog",
          "sectionId":"us-news",
          "sectionName":"US news",
          "webPublicationDate":"2016-06-21T21:30:42Z",
          "webTitle":"Clinton warns: Trump would wreck economy",
          "webUrl":"https://www.theguardian.com/us-news/live/2016/jun/21/hillary-clinton-donald-trump-economic-issues-general-election",
          "apiUrl":"https://content.guardianapis.com/us-news/live/2016/jun/21/hillary-clinton-donald-trump-economic-issues-general-election",
          "fields":{
            "thumbnail":"https://media.guim.co.uk/ac96ebdeb2901c9754874619f5697c2bffc69cef/951_0_2792_1676/500.jpg"
          }
          ,
          "isHosted":false
        }
        ,
        {
          "id":"commentisfree/2016/aug/19/investing-olympics-medals-industry-team-gb",
          "type":"article",
          "sectionId":"commentisfree",
          "sectionName":"Opinion",
          "webPublicationDate":"2016-08-19T06:00:10Z",
          "webTitle":"Britain’s Olympics strategy can work for our economy too | Martin Kettle",
          "webUrl":"https://www.theguardian.com/commentisfree/2016/aug/19/investing-olympics-medals-industry-team-gb",
          "apiUrl":"https://content.guardianapis.com/commentisfree/2016/aug/19/investing-olympics-medals-industry-team-gb",
          "fields":{
            "thumbnail":"https://media.guim.co.uk/c013b528d222a24793d517cbb814f2980e1d17dd/322_212_3423_2054/500.jpg"
          }
          ,
          "isHosted":false
        }
        ,
        {
          "id":"us-news/2016/aug/11/clinton-trump-economic-plans-tax-cuts-buffett-rule",
          "type":"article",
          "sectionId":"us-news",
          "sectionName":"US news",
          "webPublicationDate":"2016-08-11T21:33:53Z",
          "webTitle":"Clinton v Trump on the economy: speeches underscore competing visions",
          "webUrl":"https://www.theguardian.com/us-news/2016/aug/11/clinton-trump-economic-plans-tax-cuts-buffett-rule",
          "apiUrl":"https://content.guardianapis.com/us-news/2016/aug/11/clinton-trump-economic-plans-tax-cuts-buffett-rule",
          "fields":{
            "thumbnail":"https://media.guim.co.uk/f35a17fe4209074bf849fb07bef7ccddb11f7f7e/77_45_2311_1386/500.jpg"
          }
          ,
          "isHosted":false
        }
        ,
        {
          "id":"business/2016/jul/24/brexit-offers-key-opportunity-to-reboot-uk-economy",
          "type":"article",
          "sectionId":"business",
          "sectionName":"Business",
          "webPublicationDate":"2016-07-24T12:59:19Z",
          "webTitle":"Brexit offers key opportunity to reboot UK economy",
          "webUrl":"https://www.theguardian.com/business/2016/jul/24/brexit-offers-key-opportunity-to-reboot-uk-economy",
          "apiUrl":"https://content.guardianapis.com/business/2016/jul/24/brexit-offers-key-opportunity-to-reboot-uk-economy",
          "fields":{
            "thumbnail":"https://media.guim.co.uk/03d42e0215f16ee91dee080cad828071ec510fc6/0_96_3500_2100/500.jpg"
          }
          ,
          "isHosted":false
        }
        ,
        {
          "id":"business/2016/jul/27/uk-economy-grew-before-brexit-vote-second-quarter-gdp-philip-hammond",
          "type":"article",
          "sectionId":"business",
          "sectionName":"Business",
          "webPublicationDate":"2016-07-27T10:40:24Z",
          "webTitle":"UK economy grew by 0.6% before Brexit vote",
          "webUrl":"https://www.theguardian.com/business/2016/jul/27/uk-economy-grew-before-brexit-vote-second-quarter-gdp-philip-hammond",
          "apiUrl":"https://content.guardianapis.com/business/2016/jul/27/uk-economy-grew-before-brexit-vote-second-quarter-gdp-philip-hammond",
          "fields":{
            "thumbnail":"https://media.guim.co.uk/38ea8294eb871281e64d37188452c5db3ac8c60b/0_495_7360_4417/500.jpg"
          }
          ,
          "isHosted":false
        }
        ,
        {
          "id":"australia-news/2016/jul/21/scott-morrison-australias-economy-weathered-initial-brexit-shock-well",
          "type":"article",
          "sectionId":"australia-news",
          "sectionName":"Australia news",
          "webPublicationDate":"2016-07-21T09:54:11Z",
          "webTitle":"Treasurer says Australia's economy has weathered initial Brexit shock well",
          "webUrl":"https://www.theguardian.com/australia-news/2016/jul/21/scott-morrison-australias-economy-weathered-initial-brexit-shock-well",
          "apiUrl":"https://content.guardianapis.com/australia-news/2016/jul/21/scott-morrison-australias-economy-weathered-initial-brexit-shock-well",
          "fields":{
            "thumbnail":"https://media.guim.co.uk/dc1c885e874f1188052fd2dfe552ac7930d2059d/0_164_4173_2504/500.jpg"
          }
          ,
          "isHosted":false}]}]}
